{
  "lines": [
    {
      "show": true,
      "character": "nina",
      "layer": "base",
      "position": "",
      "__format": "change_character_visibility_line"
    },
    {
      "background": "bg meadow.jpg",
      "__format": "background_change_line"
    },
    {
      "text": {
        "es": "El policia me come tol capullo",
        "en": "¿Que como follan las lesbianas?",
        "ca": "Era un dissabte al vespre, vaig anar als cotxes de xoc"
      },
      "character": "nina",
      "__format": "text_line",
      "line_style": "normal"
    },
    {
      "text": {
        "en": "Pues sin ti, parguela.",
        "ca": "La mare que em va matricular, UNA LOLI!",
        "es": ""
      },
      "character": "nina",
      "line_style": "normal",
      "__format": "text_line"
    },
    {
      "path": "res://game/minigames/main_minigame/main_minigame.tscn",
      "__format": "run_minigame_line"
    }
  ],
  "__format": "scene"
}